Place,Name,Sex,BodyweightKg,WeightClassKg,Equipment,BirthYear,Division,Squat1Kg,Squat2Kg,Squat3Kg,Best3SquatKg,Bench1Kg,Bench2Kg,Bench3Kg,Best3BenchKg,Deadlift1Kg,Deadlift2Kg,Deadlift3Kg,Best3DeadliftKg,TotalKg,Event,BirthDate
1,Gabriela Watman,F,60,63,Raw,2006,FR-Sj,-97.5,107.5,112.5,112.5,52.5,55,57.5,57.5,117.5,132.5,142.5,142.5,312.5,SBD,
DQ,Daniella-Jade Chester,F,67.4,69,Raw,2004,FR-Sj,60,-70,70,70,-55,-55,-55,,70,85,110,110,,SBD,
1,Charlie Chester,F,118.7,84+,Raw,1996,FR-O,150,165,,165,97.5,103,105,105,175,195,-210,195,465,SBD,
1,Harvey Chester,M,56.8,59,Raw,2008,MR-Sj,97.5,107.5,-110,107.5,60,65,-67.5,65,125,137.5,-152.5,137.5,310,SBD,
1,Lachlan Peck,M,82.2,83,Raw,2006,MR-Sj,165,177.5,185,185,102.5,110,115,115,150,170,190,190,490,SBD,
2,Thomas Drummond,M,80.9,83,Raw,2005,MR-Sj,-120,-130,130,130,85,90,95,95,170,180,190,190,415,SBD,
3,Andrew Matthews,M,82.7,83,Raw,2008,MR-Sj,130,137.5,145,145,72.5,77.5,82.5,82.5,145,155,165,165,392.5,SBD,
1,Daniel Beaman,M,85.5,93,Raw,2007,MR-Sj,155,-170,170,170,90,95,-100,95,190,200,-210,200,465,SBD,
2,Samy Elkholy,M,90.6,93,Raw,2007,MR-Sj,145,150,160,160,72.5,77.5,-82.5,77.5,170,187.5,200,200,437.5,SBD,
1,Bill Peters-Cheale,M,73.5,74,Raw,2002,MR-Jr,120,-127.5,,120,95,-102.5,-102.5,95,175,187.5,-200,187.5,402.5,SBD,
1,Hani Tabbara,M,82.1,83,Raw,2001,MR-Jr,220,227.5,235,235,130,135,-137.5,135,270,285,300,300,670,SBD,
1,Henry Hart,M,86.6,93,Raw,2001,MR-Jr,197.5,210,215,215,112.5,120,-125,120,247.5,-260,-260,247.5,582.5,SBD,
2,Benedict Foster,M,89,93,Raw,2001,MR-Jr,170,180,190,190,100,110,117.5,117.5,220,235,-242.5,235,542.5,SBD,
1,Gabriel Rowland,M,99.1,105,Raw,2001,MR-Jr,215,222.5,227.5,227.5,147.5,155,160,160,255,270,-285,270,657.5,SBD,
1,Alexander Jackson #1,M,117.9,120,Raw,1999,MR-Jr,247.5,265,280,280,195,-207.5,207.5,207.5,265,285,-302.5,285,772.5,SBD,
1,Steven Tyers,M,73.9,74,Raw,1989,MR-O,190,205,215,215,140,147.5,,147.5,210,227.5,237.5,237.5,600,SBD,
1,Jay Hooper,F,55.6,57,Raw,1986,FR-O,,,,,62.5,67.5,-72.5,67.5,,,,,67.5,B,
1,Jacob Taylor,M,63.9,66,Raw,2001,MR-Jr,,,,,82.5,87.5,92.5,92.5,,,,,92.5,B,
